<?xml version="1.0" encoding="utf-8"?>
<!-- Generator: Adobe Illustrator 16.0.0, SVG Export Plug-In . SVG Version: 6.00 Build 0)  -->
<!DOCTYPE svg PUBLIC "-//W3C//DTD SVG 1.1//EN" "http://www.w3.org/Graphics/SVG/1.1/DTD/svg11.dtd">
<svg version="1.1" id="Calque_1" xmlns="http://www.w3.org/2000/svg" xmlns:xlink="http://www.w3.org/1999/xlink" x="0px" y="0px"
	 width="50px" height="50px" viewBox="0 0 50 50" enable-background="new 0 0 50 50" xml:space="preserve">
<g id="patisserie">
	<g>
		<path fill="#E04623" d="M9.832,34.753c-2.606-0.204-3.908-2.658-5.218-4.739c-1.927-3.061-1.46-6.776-0.547-10.079
			c0.751-2.719,2.335-5.056,4.514-6.825c1.37-1.112,3.627-1.953,5.221-0.943c1.449,0.918,0.696,2.743-0.371,3.494
			c0.458-0.265,0.917-0.529,1.375-0.794c-1.926,0.915-4.032,0.896-5.431-0.863c-1.848-2.325-0.03-6.436,2.497-7.363
			c2.343-0.86,4.575-1.385,7.071-1.181c2.086,0.17,3.728,2.717,1.789,4.231c0.458-0.265,0.917-0.529,1.375-0.793
			c-3.139,1.263-3.908-2.257-2.513-4.339c2.345-3.501,8.109,0.256,10.786,1.131c3.882,1.269,8.798-0.138,11.14-3.586
			c-0.265,0.39-1.104,0.396-1.375,0.794c-4.494,6.615-12.18-1.722-17.756-0.149c-2.541,0.717-6.209,3.396-4.576,6.324
			c1.333,2.387,6.712-0.345,4.484-3.547c-1.365-1.961-5.723-0.731-7.428-0.175c-1.557,0.508-2.952,1.009-4.353,1.837
			c-2.088,1.233-3.271,3.325-3.169,5.756c0.137,3.287,3.673,3.862,6.084,2.718c0.465-0.221,0.954-0.498,1.375-0.794
			c1.141-0.803,1.393-1.746,0.788-3.017c-0.844-1.771-3.334-0.723-4.573-0.188c-3.303,1.427-6.013,3.804-7.59,7.068
			c-1.336,2.764-1.828,6.123-1.337,9.138c0.571,3.51,2.116,4.667,5.072,6.217c0.576,0.303,3.692,0.912,4.121,0.946L9.832,34.753z"/>
		<path fill="#E04623" d="M6.844,10.812c0,0,0.438-3.281,4.75-5.125C11.594,5.688,6.875,5.719,6.844,10.812z"/>
		<path fill="#E04623" d="M10.062,33.662c0,0-3.411-1.842-5.561-7.824L10.062,33.662z"/>
		<path fill="#E04623" d="M3.844,16.438c0,0-5,8.375-1.594,14.281C2.25,30.719-2.969,25.875,3.844,16.438z"/>
	</g>
	<g>
		<path fill="#80B49D" d="M21.717,42.593c10.99,0,19.896,1.435,19.896,3.203c0,1.04-3.07,1.963-7.834,2.549
			c-0.235,0.029-0.483,0.056-0.725,0.083l-1.106-1.955v2.069h-0.003L30.57,46.99v1.674l0,0l-2.002-2.191v2.33
			c-0.096,0.008-0.19,0.014-0.289,0.02l-1.758-1.086v1.17c-0.054,0.001-0.108,0.004-0.164,0.006l-1.471-0.803l-0.332,0.855
			C23.626,48.986,22.682,49,21.717,49c-0.588,0-1.168-0.005-1.744-0.014l-2.15-2.514v2.465c-0.027,0-0.056,0-0.083-0.002
			l-3.189-2.463l1.289,2.385l0,0l-1.747-1.178v1.075l0,0l-1.006-0.731c0,0,0.108,0.265,0.062,0.664
			c-6.7-0.516-11.33-1.615-11.33-2.893C1.818,44.025,10.727,42.593,21.717,42.593z"/>
		<path fill="#80B49D" d="M19.844,41.182l0.062,1.514l-1.054-1.094l0.05,1.225l-1.529-1.542l0.076,1.847l-1.535-0.861l0.038,0.924
			L14.73,42.59l-0.225,0.661l-0.902,1.089l-2.438-0.961l-1.649-1.773l0.076,1.849l-2.469-1.749l1.014,1.705l-1.312-0.809
			l0.032,0.787L6.1,42.882c0,0,0.138,0.29,0.029,0.714C6.02,44.021,6.18,44.833,6.18,44.833s2.312,0.979,2.503,1.034
			s7.449,0.136,7.767,0.186c0.318,0.051,4.468-0.626,4.225-0.994c-0.243-0.367,0.606-1.567,0.606-1.567L19.844,41.182z"/>
		<path fill="none" stroke="#3A2716" stroke-width="1.0066" stroke-miterlimit="10" d="M44.841,18.566c0,0-0.288-0.746-0.745-1.034
			c-0.461-0.287,0-2.699,0-2.699s-0.807-0.401-1.438,0c-0.632,0.402-0.86-2.182-1.778-0.919c0,0-2.525-1.665-2.47,0.459
			c0.058,2.125,0.286,2.872,0.286,2.872l-5.282,2.125c0,0-1.289-4.372-6.97-4.976c-0.068-0.006-0.139-0.014-0.209-0.02
			c0,0-4.076-0.803-1.951,4.996c0,0-6.776-2.125-10.165-1.838c-3.387,0.288-1.493,2.24-1.493,2.24s-1.206,1.148,0.459,2.297
			c0,0-2.067-0.23-3.675,0c-1.607,0.229-1.321,1.435-1.091,2.009c0.229,0.575,0.747,1.091,0.747,1.091s-1.091,1.033-0.459,2.067
			c0.632,1.033,1.207,2.813,1.207,2.813s2.526,3.271,3.272,3.562c0,0-2.757,1.664-2.872,2.983c-0.114,1.32,0.345,1.552,4.996,2.298
			s12.23,1.779,12.23,1.779l3.444,1.205c0,0,2.759,0.403,2.412-2.124l-0.171-1.606c0,0,5.34-2.93,5.855-7.178
			c0.517-4.25,0.861-7.696,0.861-7.696s2.124,2.182,3.33,2.413c0,0,1.092,0.058,0.518-2.125c0,0,5.226,1.034,3.56-1.206
			c0,0,3.272-0.114,0.862-2.125C45.701,18.222,44.841,18.566,44.841,18.566z"/>
		<polygon fill="none" stroke="#3A2716" stroke-width="1.0066" stroke-miterlimit="10" points="33.08,41.132 34.661,42.469 
			38.236,42.167 38.452,42.77 36.084,43.114 38.969,44.105 38.969,44.708 36.023,43.76 37.504,46.216 36.73,46.473 35.049,44.062 
			33.08,44.234 33.08,43.803 34.146,43.286 32.423,41.902 		"/>
		<path fill="none" stroke="#3A2716" stroke-width="1.0066" stroke-miterlimit="10" d="M10.891,37.943l-5.729,1.94
			c0,0-2.67,0.56-3.876-1.25l0.388-0.69c0,0,0.474,0.777,1.163,0.82c0,0-0.689-0.818-0.56-1.896h0.689c0,0,0.043,1.461,0.689,1.549
			l0.172-1.549l0.603,0.216l0.302,1.034l5.471-1.25C10.202,36.869,10.263,37.711,10.891,37.943z"/>
		<path fill="#FFFFFF" d="M44.841,18.566c0,0-0.288-0.746-0.745-1.034c-0.461-0.287,0-2.699,0-2.699s-0.807-0.401-1.438,0
			c-0.632,0.402-0.86-2.182-1.778-0.919c0,0-2.525-1.665-2.47,0.459c0.058,2.125,0.286,2.872,0.286,2.872l-5.282,2.125
			c0,0-1.289-4.372-6.97-4.976c-0.068-0.006-0.139-0.014-0.209-0.02c0,0-4.076-0.803-1.951,4.996c0,0-6.776-2.125-10.165-1.838
			c-3.387,0.288-1.493,2.24-1.493,2.24s-1.206,1.148,0.459,2.297c0,0-2.067-0.23-3.675,0c-1.607,0.229-1.321,1.435-1.091,2.009
			c0.229,0.575,0.747,1.091,0.747,1.091s-1.091,1.033-0.459,2.067c0.632,1.033,1.207,2.813,1.207,2.813s2.526,3.271,3.272,3.562
			c0,0-2.757,1.664-2.872,2.983c-0.114,1.32,0.345,1.552,4.996,2.298s12.23,1.779,12.23,1.779l3.444,1.205
			c0,0,2.759,0.403,2.412-2.124l-0.171-1.606c0,0,5.34-2.93,5.855-7.178c0.517-4.25,0.861-7.696,0.861-7.696s2.124,2.182,3.33,2.413
			c0,0,1.092,0.058,0.518-2.125c0,0,5.226,1.034,3.56-1.206c0,0,3.272-0.114,0.862-2.125C45.701,18.222,44.841,18.566,44.841,18.566
			z"/>
		<polygon fill="#EFB649" points="33.08,41.132 34.661,42.469 38.236,42.167 38.452,42.77 36.084,43.114 38.969,44.105 
			38.969,44.708 36.023,43.76 37.504,46.216 36.73,46.473 35.049,44.062 33.08,44.234 33.08,43.803 34.146,43.286 32.423,41.902 		
			"/>
		<path fill="#EFB649" d="M10.891,37.943l-5.729,1.94c0,0-2.67,0.56-3.876-1.25l0.388-0.69c0,0,0.474,0.777,1.163,0.82
			c0,0-0.689-0.818-0.56-1.896h0.689c0,0,0.043,1.461,0.689,1.549l0.172-1.549l0.603,0.216l0.302,1.034l5.471-1.25
			C10.202,36.869,10.263,37.711,10.891,37.943z"/>
		<path fill="#80B49D" d="M40.998,21.665c-1.246,0-2.26-1.013-2.26-2.259c0-1.245,1.014-2.258,2.26-2.258
			c1.244,0,2.257,1.013,2.257,2.258C43.255,20.652,42.242,21.665,40.998,21.665z M40.998,18.493c-0.505,0-0.916,0.41-0.916,0.914
			c0,0.504,0.411,0.914,0.916,0.914c0.504,0,0.913-0.41,0.913-0.914C41.911,18.903,41.502,18.493,40.998,18.493z"/>
		<circle fill="#FFFFFF" cx="40.997" cy="19.406" r="1.586"/>
		<circle fill="#3A2716" cx="40.998" cy="19.406" r="0.606"/>
		<g>
			<path fill="#E04623" d="M44.031,23.625c0.564,2.168-0.812,2.344-0.812,2.344c-1.205-0.229-3.373-2.694-3.373-2.694
				s0,0.004,0,0.006l-0.436-1.125l3.765,0.861C43.175,23.017,43.734,23.306,44.031,23.625z"/>
			<path fill="#E04623" d="M38.188,14.25c-0.057-2.124,2.688-0.562,2.688-0.562c0.918-1.263,1.274,1.339,1.906,0.938
				c0.362-0.23,1.601,0.065,1.562,0.031c0,0-0.709,2.59-0.248,2.876c0,0-1.494-1.264-5.4-0.287
				C38.268,15.843,38.229,15.747,38.188,14.25z"/>
		</g>
		<path fill="#3A2716" d="M33.154,30.539c0.259-0.018-12.833,2.991-15.072-2.939c0,0-5.599-1.078-3.532-3.678
			c0,0-1.034,2.829,4.393,2.914C18.943,26.835,17.823,31.573,33.154,30.539z"/>
		<path fill="#EFB649" d="M48.113,20.231c2.41,2.011-0.862,2.125-0.862,2.125c1.666,2.24-3.56,1.206-3.56,1.206
			c0.009,0.031,0.014,0.057,0.02,0.087c-0.714-0.435-1.331-0.815-1.331-0.815l2.461-4.268
			C44.841,18.566,45.701,18.222,48.113,20.231z"/>
		<path fill="#3A2716" d="M48.926,21.744c0,0-1.132,1.675-5.588-0.571c0,0,3.286,2.534,5.588,1.285V21.744z"/>
		<path fill="#3A2716" d="M45.277,18.57c0,0-1.322,1.531-2.006,2.714c0,0-0.875,1.561-0.412,1.844
			c0.466,0.284,0.959,0.457,0.959,0.457l0.184,0.214l-0.081,0.336l-1.903-1.385c0,0,0.19,0.064,0.565-0.496
			c0.378-0.56,1.812-2.998,1.885-3.287c0.07-0.289,0.313-0.649,0.095-0.938l0.437,0.264L45.277,18.57z"/>
		<path fill="#3A2716" d="M33.311,40.441c0,0-0.051,1.175-1.361,1.396v0.502c0,0,1.4-0.324,1.83-1.658L33.311,40.441z"/>
		<path fill="#3A2716" d="M10.424,35.991c0,0-0.765,1.214,0.583,2.005v0.531c0,0-1.797-0.754-1.172-2.391L10.424,35.991z"/>
		<path fill="#3A2716" d="M5.851,38.75c0,0-0.918,0.402-1.252-1.086l0.448-0.206C5.047,37.458,5.076,38.463,5.851,38.75z"/>
		<path fill="#3A2716" d="M3.724,37.801c0,0-0.241,0.979,0.304,1.322c0,0-0.761-0.188-0.974-1.573
			c-0.003-0.021,0.259,0.417,0.256,0.396C3.167,36.855,3.724,37.801,3.724,37.801z"/>
	</g>
</g>
</svg>
