<?xml version="1.0" encoding="utf-8"?>
<!-- Generator: Adobe Illustrator 16.0.0, SVG Export Plug-In . SVG Version: 6.00 Build 0)  -->
<!DOCTYPE svg PUBLIC "-//W3C//DTD SVG 1.1//EN" "http://www.w3.org/Graphics/SVG/1.1/DTD/svg11.dtd">
<svg version="1.1" id="Calque_1" xmlns="http://www.w3.org/2000/svg" xmlns:xlink="http://www.w3.org/1999/xlink" x="0px" y="0px"
	 width="50px" height="50px" viewBox="0 0 50 50" enable-background="new 0 0 50 50" xml:space="preserve">
<g id="Calque_3">
	<g>
		<path fill="#E04623" d="M33.062,36.562c0,0,7.062-3,9.463-15.587c0,0-3.359,11.404-8.691,14.358"/>
		<path fill="#E04623" d="M41.236,14.926c0,0,0.943,8.41-4.49,15.463C36.746,30.389,41.086,22.058,41.236,14.926z"/>
		<path fill="#E04623" d="M33.176,32.184c0,0,3.213-2.416,4.696-7.016c0,0-2.958,5.042-4.997,6.27L33.176,32.184z"/>
		<path fill="#E04623" d="M6.042,29c0,0,1.871,3.438,6.111,5.754c0,0-4.4-3.848-5.226-6.08L6.042,29z"/>
		<path fill="#E04623" d="M19.689,1.004c0,0,8.435,0.701,14.302,7.399C33.991,8.404,26.658,2.532,19.689,1.004z"/>
		<path fill="#E04623" d="M33.834,11.917c0,0-1.523-3.283-5.748-5.63c0,0,4.251,3.584,5.061,5.823L33.834,11.917z"/>
		<path fill="#E04623" d="M9.958,31.084c0,0,1.982,3.043,6.516,4.715c0,0-4.749-2.892-5.89-4.98L9.958,31.084z"/>
		<path fill="#E04623" d="M39.161,10.527c0,0-1.114-4.833-13.354-9.525c0,0,9.867,4.486,13.01,9.775
			C39.113,11.277,39.161,10.527,39.161,10.527z"/>
		<path fill="#E04623" d="M3.393,20.635c0,0,2.035-8.215,9.581-12.94C12.973,7.695,6.01,13.999,3.393,20.635z"/>
		<path fill="#E04623" d="M14.897,8.869c0,0-3.667,1.895-6.09,6.077c0,0,4.33-4.427,6.583-5.197L14.897,8.869z"/>
		<path fill="#E04623" d="M14.053,4.9c0,0-6.688,0.259-12.209,14.304c0,0,5.59-11.724,11.542-13.5L14.053,4.9z"/>
	</g>
	<g id="maison">
		<g>
			<g>
				<path fill="#80B49D" d="M45.057,40.841c0.024-0.223,0.077-0.751,0.077-1.214c0,0-0.317,0.818-0.391,1.023
					c-0.009-0.004-0.017-0.008-0.025-0.012c-0.042-0.193-0.198-0.814-0.228-0.843c-0.033-0.032-0.354-0.707-0.354-0.707l0.229,1.285
					l-0.042,0.122c-0.036-0.012-0.072-0.021-0.11-0.031c-0.1-0.258-0.299-0.758-0.466-1.081c0,0,0.092,0.63,0.168,1.011
					c-0.142-0.03-0.29-0.058-0.444-0.08c-0.121-0.246-0.252-0.506-0.27-0.533c-0.021-0.031,0.008,0.253,0.035,0.498
					c-0.053-0.006-0.104-0.014-0.158-0.02c-0.174-0.289-0.436-0.654-0.674-0.711c0,0,0.253,0.358,0.406,0.682
					c-0.551-0.055-1.138-0.084-1.703-0.096c-0.029-0.119-0.062-0.32-0.006-0.514c0,0-0.232,0.275-0.192,0.441l-0.406-0.808
					l0.224,0.843l-0.521-0.617l0.166,0.627c0,0-0.027-0.104-0.574-0.666c0,0,0.128,0.324,0.158,0.44
					c0.021,0.083,0.048,0.136,0.148,0.246c-1.088,0.008-1.916,0.062-1.916,0.062l-23.917,4.522c0,0,4.056,3.239,7.114,4.646
					c2.468,1.136,8.35-0.354,15.387-3.28c-0.104-0.288-0.334-0.943-0.541-1.608c0,0,0.943,1.299,0.932,1.305
					c-0.014,0.006-0.034-1.246,0-1.305c0.033-0.056,0.176-1.693,0.176-1.693l0.199,2.434l0.212,0.314c0,0,0.14-1.025,0.271-1.877
					c0,0,0.146,1.269,0.145,1.698c0,0.056,0.008,0.099,0.02,0.134c0.148-0.064,0.297-0.129,0.446-0.193
					c0.08-0.396,0.249-1.232,0.271-1.299c0.024-0.071,0.154,0.834,0.189,1.095c0.016-0.007,0.03-0.015,0.047-0.021
					c0.125-0.322,0.564-1.429,0.758-1.67c0,0-0.369,0.992-0.342,1.483c0.76-0.342,1.529-0.697,2.307-1.065
					c0.008-0.142,0.004-0.498-0.176-0.787c0,0,0.416,0.291,0.422,0.527l0.262-1.238v1.223l0.482-1.022v0.81
					c0.051-0.027,0.107-0.057,0.158-0.082c0.146-0.191,0.346-0.521,0.381-0.926c0,0-0.058,0.482-0.058,0.652
					c0,0.035-0.002,0.066-0.006,0.098C45.275,41.973,45.583,41.277,45.057,40.841z"/>
			</g>
		</g>
		<path fill="none" stroke="#3A2716" stroke-width="1.3275" stroke-miterlimit="10" d="M37.538,9.453l-9.563,7.404L23.865,8.4
			l-2.252,4.394l-6.225-8.708l-2.373,1.948l7.063,9.755l-2.798,5.459L6.903,29.182l2.023,2.311l5.162-3.997
			c0.026,0.092,0.238,0.664,1.585,1.228l-1.4,15.992c0,0,3.873,4.979,9.656,4.312c5.785-0.67,9.623-2.531,9.623-2.531L32.51,36.287
			l2.186-1.914l-2.741-3.541l-0.185-1.798c1.407-0.515,1.604-1.067,1.604-1.067l-4.065-8.365l10.252-7.839L37.538,9.453z"/>
		<path fill="#FFFFFF" d="M15.68,28.641l-1.407,16.073c0,0,3.873,4.979,9.656,4.312c5.785-0.668,9.623-2.53,9.623-2.53l-1.8-17.627
			L15.68,28.641z"/>
		<path fill="#3A2716" d="M15.017,29.184c0,0,7.856,3.034,17.315,0.391L31.9,28.264c0,0-15.829-0.125-15.908-0.06
			C15.914,28.271,15.017,29.184,15.017,29.184z"/>
		<path fill="#E04623" d="M23.865,8.4l9.509,19.567c0,0-0.739,2.108-9.8,1.924c-9.061-0.187-9.49-2.41-9.49-2.41L23.865,8.4z"/>
		<circle fill="#3A2716" cx="23.626" cy="20.274" r="2.241"/>
		<path fill="#3A2716" d="M19.078,42.918l-0.749,5.035c1.11,0.564,2.419,1.005,3.883,1.107l0.33-5.715L19.078,42.918z"/>
		<polygon fill="#3A2716" points="16.756,38.061 19.584,38.369 19.656,35.252 16.917,35.085 		"/>
		<polygon fill="#3A2716" points="23.828,37.785 25.717,37.471 26.021,40.064 23.709,40.189 		"/>
		<polygon fill="#3A2716" points="22.476,34.764 20.712,34.707 20.817,32.742 22.405,32.781 		"/>
		<path fill="#3A2716" d="M13.955,28.305"/>
		<g>
			<polygon fill="#3A2716" points="24.506,19.645 25.155,20.436 27.227,19.166 28.559,20.791 30.086,19.783 28.344,17.389 			"/>
			<polygon fill="#3A2716" points="24.222,15.244 21.388,11.398 22.042,15.269 21.063,16.072 22.824,19.034 23.337,18.614 
				22.362,16.771 			"/>
			<path fill="#3A2716" d="M24.962,20.594l-1.141-0.083c0,0,2.088,3.331,2.17,3.287c0.081-0.044,5.989,7.298,5.989,7.298
				l0.729-0.012l-1.201-1.467l0.436,0.006l-0.082-0.621l-0.676,0.223l-4.567-5.959L24.962,20.594z"/>
			<polygon fill="#3A2716" points="21.655,20.966 19.223,21.99 17.792,20.246 16.84,21.028 18.507,23.059 21.744,21.366 
				19.061,22.958 15.748,25.322 13.565,27.371 13.634,28.566 23.09,21.647 22.674,20.814 21.745,21.365 			"/>
			<polygon fill="#3A2716" points="23.333,21.666 25,24.25 23.583,25.625 32.291,37.125 33.124,36.458 26.124,24.375 24.041,20.708 
							"/>
			<polygon fill="#3A2716" points="19.249,15.708 21.957,19.208 22.541,19.124 20.249,15.166 			"/>
			<polygon fill="#3A2716" points="28.166,15.874 24.041,19.166 24.332,19.541 29.082,16.624 			"/>
		</g>
		<path fill="#EFB649" d="M24.051,25.497l8.334,10.899l2.311-2.023l-8.396-10.844l-0.624,0.546L24.051,25.497z M37.538,9.453
			L26.693,17.85l-3.073,1.9l-1.94-3.073l-0.026-0.025l0.044-0.036l1.668-1.369L15.388,4.086l-2.373,1.948l8.043,11.109l0.019-0.016
			l1.878,3.036l-3.731,2.307l-1.421-1.622l-10.9,8.333l2.023,2.311l9.826-7.608L23.473,21l1.983,3.206l1.169-0.246l-2.477-3.372
			l3.219-1.967l0,0l1.294,1.477l10.899-8.334L37.538,9.453z"/>
	</g>
</g>
</svg>
