<?xml version="1.0" encoding="utf-8"?>
<!-- Generator: Adobe Illustrator 16.0.0, SVG Export Plug-In . SVG Version: 6.00 Build 0)  -->
<!DOCTYPE svg PUBLIC "-//W3C//DTD SVG 1.1//EN" "http://www.w3.org/Graphics/SVG/1.1/DTD/svg11.dtd">
<svg version="1.1" id="Calque_1" xmlns="http://www.w3.org/2000/svg" xmlns:xlink="http://www.w3.org/1999/xlink" x="0px" y="0px"
	 width="120px" height="60px" viewBox="0 0 120 60" enable-background="new 0 0 120 60" xml:space="preserve">
<g>
	<path id="Vert_d_x27_eau_3_" fill="#07AEA9" d="M35.303,17.834c0,0-4.306,2.477-4.322,2.478c-0.018,0.001-0.568,3.19-0.568,3.19
		l-2.988-0.008L27.252,6.573l3.873,0.01l-0.234,5.302l0,0c0.008,0,4.985-2.089,4.985-2.089l0.021-8.397H22.596
		c0,0-0.688,26.036-0.714,26.063c-0.026,0.026,13.499,0.836,13.499,0.836L35.303,17.834z M70.221,18.45l2.432,1.113l-0.354,9.335
		l4.979-0.6l0.238-12.928l-3.848-2.998l4.047-1.761l0.672-9.213H66.504l-1.457,26.817l5.037,0.659L70.221,18.45z M71.471,6.171
		l1.549-0.106l-0.229,2.987l-1.552,0.881L71.471,6.171z M42.063,17.573l2.322,0.892c0,0-0.116,10.412-0.119,10.44
		c-0.003,0.024,5.187,0.292,5.187,0.292L50.632,1.4h-5.199l-0.47,11.679c0,0-2.125-0.78-2.1-0.78c0.042,0-0.087-10.899-0.087-10.899
		h-4.093l-0.852,27.131l4.188,0.238L42.063,17.573z M37.577,42.777l0.272-7.219l5.175,0.408l-0.238,3.465l3.779,1.379v-8.111
		l-14.093-0.821l0.065,14.306l9.942,2.858v5.312l-5.993,0.138l0.298-4.513l-4.315-1.275l0.002,10.078H46.77l-0.281-12.487
		L37.577,42.777z M48.637,58.779h4.701c0,0-0.288-7.078-0.304-7.114l0,0l0,0l0,0l0,0c0.033-0.008,2.859-1.313,2.859-1.313
		s-0.34,8.409-0.342,8.43c0,0.005,0.506,0.007,1.182,0.007c1.352,0,3.381-0.007,3.381-0.007l1.317-26.994l-12.309,0.972
		L48.637,58.779z M53.536,36.412l2.904,0.008l-0.16,7.967l-3.045,1.209L53.536,36.412z M52.625,28.879l4.137-0.332
		c0,0-0.198-6.979-0.212-7.016l0,0l0,0l0,0l0,0c0.026-0.008,2.289-1.315,2.289-1.315s-0.276,8.176-0.278,8.196
		c0,0,0.004,0.001,0.012,0.001c0.211,0,3.229-0.178,3.229-0.178l1.479-26.834H53.023L52.625,28.879z M56.96,6.278l2.323,0.006
		l-0.132,7.966l-2.438,1.21L56.96,6.278z M93.297,1.399L93.289,6.55c1.035-0.545,4.206-2.578,4.986-3.081V3.455l0.058-2.057
		L93.297,1.399L93.297,1.399z M87.068,1.399h-6.196c-0.001,0.443-0.548,27.149-0.548,27.149l10.103-0.253l0.119-3.132l-4.862-1.673
		L87.068,1.399z M92.527,28.153h5.201l0.448-21.438L93.199,9.64L92.527,28.153z M86.423,32.023l-6.045,1.73l0.149,2.74
		c0.013-0.032,5.781-1.608,5.781-1.608L86.423,32.023z M70.573,32.579l-6.196-0.741c-0.001,0.443-0.957,26.941-0.957,26.941h10.512
		l0.119-3.586l-4.863-1.674L70.573,32.579z M88.225,40.02l-0.068-3.677L75.83,39.577l0.136,19.202h12.197l0.062-4.086h-7.832
		c0,0-0.067-3.133-0.137-3.133c-0.066,0,7.831-2.791,7.831-2.791v-3.404l-8.035,2.314l0.052-5.566L88.225,40.02z"/>
</g>
</svg>
